{
  "type": "minecraft:crafting_shaped",
  "pattern":
  [
    " x ",
    "xex",
    " x "
  ],
  "key":
  {
    "x":
    {
      "item": "honey_i_shrunk_the_space:compressed_wall_block"
    },
    "e": {
      "item": "honey_i_shrunk_the_space:ender_shard"
    }
  },
  "result":
  {
    "item": "honey_i_shrunk_the_space:dblcompressed_wall_block",
    "count": 1
  }
}