{
  "type": "minecraft:crafting_shapeless",
  "ingredients": [
    {
      "item": "honey_i_shrunk_the_space:trplcompressed_wall_block"
    }
  ],
  "result": {
    "item": "honey_i_shrunk_the_space:dblcompressed_wall_block",
    "count": 4
  }
}